Partitions with True Distance
(0.0, 0.03125)
[20, 130, 30, 140, 180, 160, 90, 80, 50, 120, 10, 110, 100, 40, 0, 60, 70, 170, 190, 150]|
[151, 81, 121, 11, 61, 191, 161, 171, 131, 111, 181, 71, 21, 41, 91, 1, 101, 141, 51, 31]|

(0.0, 0.0625)
[122, 92, 142, 72, 182, 42, 172, 152, 102, 2, 82, 52, 112, 132, 32, 192, 62, 12, 22, 162]|
[37, 47, 97, 79, 78, 199, 68, 168, 125, 145, 17, 87, 127, 57, 76, 25, 95, 88, 129, 158, 196, 99, 28, 185, 29, 177, 108, 137, 119, 159, 89, 107, 16, 55, 19, 39, 156, 176, 48, 166, 77, 66, 35, 109, 165, 195, 178, 56, 46, 138, 49, 115, 135, 106, 149, 188, 197, 139, 148, 116, 105, 45, 167, 38, 75, 136, 189, 7, 8, 186, 169, 126, 65, 67, 98, 58, 198, 146, 128, 175, 118, 86, 6, 18, 85, 26, 36, 5, 27, 96, 9, 147, 155, 157, 187, 69, 179, 59, 15, 117]|
[74, 104, 93, 123, 43, 13, 124, 183, 133, 63, 153, 14, 4, 24, 34, 113, 53, 164, 94, 23, 84, 33, 144, 114, 184, 3, 143, 73, 44, 173, 174, 193, 103, 83, 154, 54, 134, 64, 194, 163]|

(0.03125, 0.0625)
[190, 50, 180, 20, 60, 30, 10, 110, 90, 160, 150, 100, 80, 140, 40, 170, 70, 120, 130, 0]|
[31, 51, 1, 161, 171, 191, 91, 131, 41, 101, 81, 151, 71, 121, 61, 141, 21, 181, 11, 111]|

(0.0, 0.125)

(0.0625, 0.125)
[100, 190, 180, 0, 170, 90, 20, 150, 60, 30, 110, 70, 160, 10, 50, 120, 80, 140, 130, 40]|
[102, 12, 112, 122, 2, 162, 52, 62, 72, 22, 182, 172, 152, 92, 132, 82, 142, 42, 32, 192]|
[49, 107, 188, 159, 9, 48, 6, 158, 67, 187, 29, 96, 166, 127, 59, 87, 77, 37, 89, 17, 139, 129, 109, 128, 99, 58, 116, 16, 178, 8, 147, 28, 146, 197, 198, 136, 27, 26, 88, 97, 118, 157, 38, 47, 56, 18, 78, 156, 189, 46, 36, 168, 7, 137, 19, 126, 39, 108, 66, 169, 98, 179, 57, 79, 69, 176, 119, 167, 138, 177, 86, 199, 148, 186, 76, 149, 117, 106, 68, 196]|
[163, 113, 63, 93, 43, 23, 73, 173, 53, 3, 133, 103, 143, 83, 123, 153, 13, 33, 183, 193]|
[164, 84, 125, 45, 144, 115, 64, 174, 165, 14, 35, 104, 135, 15, 185, 175, 154, 85, 194, 114, 44, 155, 55, 54, 95, 94, 4, 34, 145, 195, 74, 134, 24, 105, 184, 124, 75, 5, 25, 65]|

(0.0625, 0.09375)
[121, 1, 111, 181, 81, 131, 71, 141, 41, 51, 11, 171, 161, 91, 191, 101, 21, 61, 151, 31]|

(0.09375, 0.125)
[121, 71, 91, 111, 171, 151, 191, 41, 181, 1, 21, 31, 161, 101, 81, 61, 131, 141, 51, 11]|

(0.0, 0.25)

(0.125, 0.25)

(0.125, 0.1875)
[133, 113, 173, 23, 93, 103, 63, 123, 183, 33, 163, 153, 73, 83, 43, 53, 13, 3, 193, 143]|
[140, 50, 130, 0, 110, 90, 70, 160, 150, 120, 10, 80, 190, 100, 30, 20, 60, 180, 170, 40]|
[114, 144, 154, 124, 64, 94, 104, 4, 194, 134, 164, 14, 74, 34, 184, 84, 174, 24, 54, 44]|
[47, 129, 178, 149, 78, 177, 75, 168, 77, 186, 68, 25, 18, 105, 8, 118, 195, 166, 89, 58, 98, 26, 76, 138, 46, 159, 16, 87, 187, 146, 169, 137, 99, 37, 65, 55, 36, 126, 139, 125, 79, 117, 66, 189, 167, 108, 196, 97, 158, 109, 147, 136, 15, 28, 49, 38, 59, 197, 6, 45, 107, 156, 39, 48, 35, 188, 19, 5, 17, 199, 176, 106, 127, 29, 135, 115, 96, 119, 198, 9, 175, 56, 27, 85, 69, 7, 148, 67, 165, 179, 157, 145, 86, 128, 116, 95, 88, 185, 155, 57]|

(0.1875, 0.25)
[91, 41, 71, 131, 171, 181, 101, 81, 11, 111, 161, 61, 21, 191, 141, 121, 151, 1, 31, 51]|
[123, 183, 63, 103, 163, 83, 53, 133, 93, 173, 143, 13, 23, 3, 113, 153, 193, 33, 73, 43]|
[130, 160, 90, 110, 80, 10, 70, 20, 100, 170, 140, 40, 0, 150, 180, 190, 120, 50, 60, 30]|
[97, 136, 98, 28, 157, 169, 26, 176, 196, 158, 179, 199, 38, 189, 76, 36, 126, 146, 148, 198, 49, 139, 99, 9, 56, 47, 19, 29, 168, 37, 27, 167, 109, 137, 17, 96, 48, 8, 159, 6, 188, 86, 87, 59, 178, 119, 89, 147, 88, 68, 149, 117, 69, 16, 108, 39, 67, 46, 78, 166, 18, 7, 138, 107, 187, 156, 58, 66, 127, 116, 118, 186, 57, 128, 77, 79, 129, 197, 177, 106]|
[74, 154, 94, 104, 134, 14, 34, 24, 44, 114, 144, 164, 174, 194, 64, 54, 124, 84, 4, 184]|
[165, 85, 5, 185, 155, 105, 65, 45, 95, 35, 25, 15, 115, 125, 195, 175, 75, 135, 145, 55]|

(0.1875, 0.21875)
[92, 182, 132, 112, 192, 12, 142, 122, 62, 2, 172, 72, 52, 82, 102, 32, 22, 42, 162, 152]|

(0.21875, 0.25)
[142, 2, 32, 192, 172, 182, 152, 112, 52, 22, 92, 122, 12, 72, 82, 132, 42, 162, 62, 102]|

(0.125, 0.15625)
[112, 22, 142, 62, 82, 12, 2, 122, 132, 72, 172, 152, 42, 32, 102, 192, 162, 92, 182, 52]|
[61, 1, 171, 151, 11, 161, 131, 21, 191, 181, 41, 111, 31, 81, 91, 101, 141, 51, 121, 71]|

(0.15625, 0.1875)
[162, 192, 142, 92, 52, 102, 172, 62, 32, 112, 82, 22, 42, 2, 182, 12, 132, 152, 72, 122]|
[181, 21, 101, 171, 141, 91, 71, 111, 161, 81, 191, 41, 51, 1, 61, 131, 31, 121, 11, 151]|

(0.0, 0.5)

(0.25, 0.5)

(0.25, 0.375)

(0.375, 0.5)

(0.375, 0.4375)
[55, 155, 65, 5, 105, 165, 175, 145, 95, 45, 115, 15, 35, 135, 25, 125, 185, 195, 85, 75]|
[166, 136, 126, 76, 96, 156, 116, 146, 66, 186, 196, 86, 56, 26, 36, 16, 6, 46, 106, 176]|
[33, 3, 113, 53, 183, 143, 83, 193, 153, 123, 163, 73, 133, 173, 103, 43, 13, 63, 93, 23]|
[42, 32, 192, 152, 132, 112, 2, 92, 122, 62, 82, 162, 12, 52, 182, 22, 102, 172, 142, 72]|
[7, 17, 111, 21, 197, 127, 139, 157, 151, 40, 27, 188, 110, 179, 107, 11, 38, 147, 191, 9, 181, 51, 198, 81, 90, 129, 149, 77, 29, 148, 141, 131, 60, 39, 58, 187, 160, 80, 79, 128, 98, 89, 69, 171, 91, 158, 99, 180, 0, 18, 8, 68, 167, 78, 189, 199, 161, 59, 71, 108, 120, 50, 169, 117, 159, 88, 137, 67, 28, 61, 121, 190, 177, 97, 57, 10, 87, 101, 130, 178, 170, 100, 48, 138, 31, 41, 109, 119, 140, 118, 150, 19, 30, 47, 168, 1, 70, 49, 20, 37]|

(0.4375, 0.5)
[76, 46, 56, 106, 156, 166, 136, 176, 66, 146, 6, 126, 26, 16, 186, 196, 116, 86, 36, 96]|
[73, 153, 173, 43, 23, 13, 143, 53, 103, 63, 123, 193, 33, 3, 133, 93, 183, 83, 163, 113]|
[191, 59, 151, 171, 189, 49, 9, 10, 51, 159, 90, 129, 89, 139, 100, 119, 181, 50, 29, 41, 71, 179, 39, 79, 0, 150, 1, 160, 101, 70, 30, 130, 81, 80, 110, 121, 31, 169, 19, 40, 111, 91, 21, 11, 20, 99, 141, 140, 131, 61, 120, 161, 180, 69, 149, 109, 190, 60, 199, 170]|
[132, 142, 178, 188, 48, 38, 177, 47, 197, 87, 22, 7, 8, 98, 52, 28, 97, 58, 2, 72, 77, 102, 78, 122, 67, 158, 128, 37, 88, 118, 187, 18, 112, 192, 62, 32, 137, 12, 57, 92, 147, 117, 108, 127, 198, 152, 172, 182, 82, 68, 138, 167, 162, 148, 27, 42, 17, 168, 157, 107]|

(0.25, 0.3125)
[154, 104, 24, 84, 34, 114, 174, 164, 134, 64, 124, 94, 184, 44, 74, 144, 54, 194, 14, 4]|
[52, 112, 62, 82, 132, 192, 142, 72, 92, 122, 172, 12, 32, 182, 102, 152, 2, 42, 162, 22]|
[175, 165, 135, 5, 35, 145, 65, 115, 105, 15, 155, 25, 85, 45, 75, 125, 55, 185, 195, 95]|
[106, 170, 27, 166, 70, 37, 16, 6, 110, 126, 0, 40, 116, 57, 180, 97, 146, 196, 147, 130, 137, 77, 117, 156, 60, 187, 107, 46, 176, 190, 10, 96, 160, 90, 86, 150, 47, 50, 100, 87, 186, 67, 177, 26, 17, 30, 120, 140, 36, 66, 167, 127, 7, 80, 20, 197, 157, 136, 56, 76]|
[159, 8, 29, 179, 178, 99, 78, 129, 168, 158, 119, 149, 19, 88, 18, 68, 128, 198, 59, 58, 148, 188, 139, 169, 108, 118, 9, 49, 28, 189, 39, 109, 38, 79, 48, 199, 89, 138, 98, 69]|
[71, 51, 161, 11, 81, 141, 61, 21, 91, 181, 1, 131, 191, 121, 101, 31, 41, 111, 151, 171]|

(0.3125, 0.375)
[12, 172, 72, 182, 82, 142, 122, 92, 2, 52, 42, 162, 192, 132, 62, 22, 112, 32, 102, 152]|
[65, 55, 85, 155, 45, 35, 195, 175, 105, 135, 5, 125, 95, 185, 165, 25, 115, 75, 145, 15]|
[88, 138, 117, 99, 10, 180, 128, 20, 127, 69, 137, 198, 80, 160, 49, 29, 197, 47, 18, 177, 167, 98, 178, 59, 187, 39, 107, 140, 90, 28, 188, 60, 17, 57, 119, 40, 9, 70, 110, 50, 0, 67, 108, 37, 109, 78, 30, 7, 150, 120, 58, 48, 139, 38, 118, 189, 199, 190, 97, 87, 159, 157, 89, 169, 130, 149, 147, 19, 168, 179, 170, 148, 79, 68, 27, 8, 100, 158, 129, 77]|
[141, 26, 171, 146, 106, 91, 81, 56, 126, 131, 191, 121, 186, 41, 16, 46, 36, 76, 11, 196, 111, 166, 86, 161, 156, 96, 21, 101, 136, 151, 61, 181, 6, 31, 51, 66, 71, 1, 176, 116]|

(0.375, 0.40625)
[114, 154, 54, 164, 174, 184, 104, 34, 4, 24, 14, 194, 44, 64, 124, 144, 74, 94, 134, 84]|

(0.40625, 0.4375)
[164, 54, 114, 4, 184, 64, 94, 124, 144, 74, 44, 174, 134, 84, 34, 24, 104, 154, 14, 194]|

(0.25, 0.28125)
[193, 33, 123, 53, 163, 93, 133, 183, 13, 103, 3, 43, 153, 173, 63, 143, 23, 113, 73, 83]|

(0.28125, 0.3125)
[83, 133, 183, 103, 23, 13, 93, 53, 163, 153, 193, 63, 3, 143, 113, 33, 43, 123, 73, 173]|

(0.4375, 0.46875)
[145, 75, 115, 55, 5, 135, 125, 15, 105, 195, 185, 45, 155, 35, 175, 95, 65, 25, 85, 165]|
[44, 114, 104, 194, 64, 144, 74, 134, 174, 94, 124, 4, 24, 14, 34, 154, 84, 164, 184, 54]|

(0.46875, 0.5)
[185, 135, 5, 175, 25, 145, 155, 45, 55, 125, 105, 95, 85, 195, 35, 15, 75, 65, 165, 115]|
[164, 114, 104, 4, 84, 34, 54, 174, 144, 124, 134, 44, 64, 184, 94, 74, 154, 24, 14, 194]|

(0.3125, 0.34375)
[23, 3, 183, 103, 83, 153, 163, 53, 123, 143, 193, 73, 33, 113, 133, 63, 93, 173, 43, 13]|
[144, 194, 114, 34, 64, 94, 134, 184, 44, 164, 24, 154, 4, 124, 74, 84, 174, 54, 14, 104]|

(0.34375, 0.375)
[73, 83, 153, 123, 63, 183, 143, 93, 23, 43, 163, 193, 13, 173, 133, 3, 33, 113, 53, 103]|
[94, 34, 84, 4, 144, 184, 154, 104, 44, 194, 64, 134, 114, 24, 124, 14, 164, 74, 54, 174]|

(0.0, 1.0)

(0.5, 1.0)

(0.5, 0.75)

(0.75, 1.0)

(0.75, 0.875)

(0.875, 1.0)

(0.5, 0.625)

(0.625, 0.75)

(0.875, 0.9375)
[148, 88, 188, 158, 38, 198, 98, 178, 18, 28, 108, 68, 168, 48, 58, 8, 128, 118, 78, 138]|
[193, 172, 141, 74, 53, 94, 41, 110, 150, 10, 2, 183, 134, 123, 44, 32, 90, 181, 63, 43, 132, 31, 13, 174, 62, 34, 1, 171, 152, 103, 4, 60, 72, 184, 151, 162, 40, 73, 182, 143, 161, 101, 194, 52, 20, 160, 163, 154, 84, 30, 33, 104, 102, 21, 80, 113, 92, 144, 64, 22, 114, 0, 61, 173, 50, 164, 24, 121, 93, 3, 81, 191, 122, 140, 42, 142, 82, 192, 100, 91, 14, 133, 51, 131, 71, 180, 170, 130, 112, 111, 11, 120, 153, 23, 124, 70, 12, 190, 54, 83]|
[165, 6, 36, 175, 176, 105, 155, 76, 185, 46, 35, 196, 146, 135, 66, 55, 75, 156, 126, 5, 166, 25, 186, 136, 106, 65, 45, 116, 15, 96, 85, 145, 195, 16, 95, 86, 115, 56, 125, 26]|
[167, 107, 137, 17, 157, 187, 97, 77, 47, 197, 37, 27, 57, 147, 87, 117, 127, 7, 67, 177]|

(0.9375, 1.0)
[162, 22, 145, 54, 165, 75, 170, 102, 194, 143, 121, 171, 40, 144, 122, 174, 64, 33, 34, 180, 135, 15, 163, 154, 141, 94, 72, 21, 73, 124, 125, 61, 12, 93, 84, 55, 151, 101, 100, 120, 161, 113, 173, 71, 131, 42, 115, 114, 53, 14, 1, 164, 172, 44, 140, 35, 90, 60, 91, 30, 175, 23, 25, 185, 63, 195, 82, 103, 52, 123, 152, 160, 191, 41, 50, 51, 192, 183, 104, 4, 31, 43, 112, 5, 110, 3, 133, 32, 2, 182, 0, 155, 11, 132, 130, 45, 10, 85, 13, 190, 81, 142, 74, 193, 134, 24, 95, 184, 153, 70, 105, 20, 65, 83, 80, 181, 62, 92, 150, 111]|

(0.75, 0.8125)
[99, 109, 149, 119, 79, 89, 169, 189, 29, 139, 19, 59, 199, 69, 159, 9, 179, 49, 129, 39]|
[137, 117, 187, 197, 177, 147, 107, 37, 87, 57, 47, 7, 127, 27, 67, 157, 77, 17, 97, 167]|
[106, 86, 186, 26, 196, 76, 56, 126, 66, 16, 166, 36, 46, 156, 136, 116, 176, 96, 146, 6]|
[123, 10, 53, 170, 51, 32, 31, 121, 13, 192, 33, 64, 71, 174, 104, 113, 63, 22, 24, 173, 50, 82, 172, 171, 190, 132, 181, 11, 122, 42, 73, 84, 160, 80, 162, 14, 163, 44, 62, 1, 161, 94, 61, 143, 193, 114, 70, 91, 101, 120, 183, 81, 0, 111, 54, 150, 112, 130, 152, 92, 131, 100, 133, 153, 23, 21, 52, 90, 194, 34, 60, 3, 191, 142, 164, 182, 141, 124, 110, 72, 154, 41, 74, 93, 140, 30, 103, 43, 20, 151, 83, 12, 102, 184, 180, 4, 144, 134, 2, 40]|
[85, 105, 75, 45, 5, 145, 135, 65, 35, 95, 185, 165, 15, 155, 175, 115, 125, 25, 55, 195]|

(0.8125, 0.875)
[187, 177, 157, 127, 87, 57, 137, 27, 117, 197, 147, 7, 17, 107, 97, 37, 167, 47, 77, 67]|
[105, 96, 56, 55, 146, 175, 166, 16, 65, 85, 165, 185, 95, 115, 196, 86, 116, 46, 5, 25, 76, 176, 6, 155, 66, 15, 126, 156, 135, 136, 106, 75, 145, 26, 186, 195, 45, 36, 125, 35]|
[42, 73, 171, 163, 170, 104, 102, 62, 120, 83, 132, 32, 113, 91, 194, 2, 31, 110, 160, 54, 141, 24, 34, 94, 153, 60, 174, 84, 191, 130, 10, 121, 40, 82, 70, 53, 124, 51, 13, 193, 131, 50, 80, 3, 142, 103, 4, 22, 20, 181, 133, 44, 164, 123, 14, 41, 43, 30, 12, 64, 92, 144, 71, 21, 140, 172, 182, 190, 152, 114, 63, 162, 154, 134, 11, 180, 150, 81, 101, 111, 33, 90, 52, 74, 192, 93, 161, 72, 143, 1, 112, 173, 183, 151, 184, 61, 23, 122, 100, 0]|

(0.625, 0.6875)
[158, 148, 168, 108, 18, 178, 48, 138, 88, 8, 58, 38, 98, 28, 78, 128, 198, 68, 188, 118]|
[145, 95, 15, 155, 25, 45, 195, 105, 65, 125, 115, 165, 55, 175, 85, 75, 185, 35, 135, 5]|
[82, 91, 50, 181, 172, 120, 60, 30, 21, 183, 122, 2, 141, 63, 62, 113, 162, 151, 43, 153, 123, 1, 173, 180, 152, 3, 111, 92, 80, 23, 51, 72, 132, 83, 182, 73, 140, 52, 81, 53, 71, 11, 42, 171, 161, 101, 0, 121, 150, 110, 40, 13, 61, 160, 142, 41, 191, 103, 163, 193, 32, 31, 131, 90, 192, 10, 70, 130, 100, 20, 170, 12, 190, 143, 112, 93, 22, 133, 33, 102]|
[174, 39, 179, 64, 199, 164, 169, 194, 189, 69, 9, 149, 104, 34, 154, 59, 114, 129, 84, 74, 99, 54, 119, 109, 24, 29, 124, 159, 134, 14, 49, 94, 89, 184, 4, 44, 79, 144, 139, 19]|

(0.6875, 0.75)
[26, 186, 136, 146, 166, 126, 56, 66, 196, 106, 96, 36, 16, 76, 46, 176, 6, 156, 86, 116]|
[118, 48, 168, 148, 178, 198, 68, 78, 138, 108, 58, 8, 88, 28, 18, 98, 38, 128, 188, 158]|
[145, 115, 25, 5, 105, 195, 125, 85, 55, 175, 75, 45, 185, 35, 65, 165, 135, 155, 95, 15]|
[123, 183, 74, 124, 103, 194, 24, 114, 3, 133, 34, 43, 84, 104, 173, 174, 53, 73, 13, 163, 193, 134, 144, 83, 33, 23, 143, 154, 94, 63, 153, 14, 164, 4, 54, 184, 113, 64, 93, 44]|
[100, 172, 190, 142, 151, 120, 121, 81, 41, 191, 30, 182, 101, 72, 40, 141, 161, 12, 102, 21, 140, 80, 132, 91, 20, 51, 22, 130, 62, 90, 42, 152, 11, 162, 111, 2, 31, 10, 170, 50, 70, 131, 110, 171, 122, 0, 181, 180, 150, 92, 82, 1, 32, 61, 60, 52, 112, 71, 160, 192]|
[79, 39, 149, 9, 129, 119, 29, 89, 199, 59, 109, 169, 179, 189, 139, 49, 99, 19, 159, 69]|

(0.5, 0.5625)
[17, 107, 87, 37, 67, 27, 7, 197, 47, 187, 157, 137, 127, 77, 57, 97, 177, 117, 147, 167]|
[132, 91, 169, 162, 139, 28, 8, 113, 168, 178, 99, 133, 142, 19, 10, 21, 43, 52, 89, 1, 42, 171, 23, 101, 191, 61, 198, 48, 143, 78, 182, 3, 172, 151, 9, 62, 69, 32, 30, 120, 119, 111, 158, 0, 110, 188, 88, 12, 83, 159, 121, 22, 123, 153, 82, 68, 60, 31, 103, 140, 129, 138, 180, 100, 190, 152, 122, 128, 161, 80, 71, 33, 163, 51, 199, 130, 90, 173, 2, 20, 98, 63, 149, 108, 118, 189, 181, 141, 179, 148, 93, 18, 150, 70, 102, 81, 160, 92, 58, 13, 11, 183, 193, 49, 29, 79, 38, 39, 112, 41, 73, 59, 170, 131, 192, 109, 50, 53, 72, 40]|
[94, 134, 54, 144, 174, 124, 34, 74, 104, 14, 184, 114, 164, 64, 84, 154, 4, 44, 24, 194]|

(0.5625, 0.625)
[115, 75, 175, 145, 5, 35, 195, 45, 135, 55, 25, 85, 155, 125, 105, 95, 165, 15, 185, 65]|
[17, 77, 107, 187, 177, 37, 117, 157, 147, 7, 167, 57, 197, 67, 47, 137, 127, 87, 97, 27]|
[168, 84, 94, 178, 64, 74, 58, 154, 148, 118, 48, 98, 174, 104, 8, 38, 24, 108, 128, 28, 144, 34, 164, 198, 188, 138, 88, 78, 14, 194, 114, 158, 124, 4, 44, 134, 18, 68, 184, 54]|
[162, 81, 82, 72, 50, 33, 11, 19, 173, 151, 90, 0, 160, 153, 190, 103, 49, 30, 142, 102, 120, 171, 3, 130, 119, 149, 63, 123, 91, 61, 101, 92, 10, 62, 40, 89, 182, 70, 133, 69, 31, 21, 43, 179, 41, 163, 71, 121, 22, 183, 9, 112, 161, 181, 29, 80, 42, 143, 52, 170, 73, 39, 83, 191, 141, 53, 152, 180, 193, 13, 132, 189, 23, 113, 2, 172, 93, 192, 99, 109, 199, 111, 150, 131, 129, 139, 60, 12, 20, 159, 110, 51, 32, 122, 1, 169, 59, 140, 100, 79]|

(0.5625, 0.59375)
[26, 156, 116, 46, 86, 106, 96, 136, 186, 146, 166, 126, 76, 16, 56, 196, 6, 66, 176, 36]|

(0.59375, 0.625)
[136, 96, 36, 156, 146, 26, 116, 126, 16, 76, 196, 166, 66, 106, 6, 56, 86, 186, 46, 176]|

(0.875, 0.90625)
[99, 129, 119, 39, 169, 89, 9, 69, 109, 149, 79, 159, 49, 189, 179, 29, 139, 59, 19, 199]|

(0.90625, 0.9375)
[29, 109, 169, 89, 119, 189, 129, 79, 59, 149, 49, 159, 19, 179, 9, 199, 139, 99, 39, 69]|

(0.75, 0.78125)
[88, 108, 28, 198, 118, 138, 38, 128, 148, 18, 48, 178, 168, 98, 8, 158, 78, 68, 58, 188]|

(0.78125, 0.8125)
[48, 108, 188, 98, 128, 178, 88, 68, 28, 38, 138, 8, 168, 118, 18, 198, 158, 148, 58, 78]|

(0.6875, 0.71875)
[157, 87, 107, 37, 97, 127, 197, 137, 147, 57, 47, 187, 167, 177, 27, 77, 117, 17, 67, 7]|

(0.71875, 0.75)
[87, 7, 147, 177, 127, 47, 97, 17, 197, 137, 37, 167, 67, 117, 57, 187, 27, 77, 157, 107]|

(0.5, 0.53125)
[105, 95, 5, 185, 55, 175, 145, 15, 25, 45, 115, 155, 195, 125, 165, 65, 75, 135, 35, 85]|
[46, 16, 56, 86, 26, 196, 116, 136, 96, 126, 36, 176, 106, 166, 66, 76, 6, 186, 156, 146]|

(0.53125, 0.5625)
[15, 55, 5, 155, 185, 165, 105, 125, 135, 65, 175, 35, 25, 95, 45, 75, 145, 195, 85, 115]|
[196, 66, 156, 106, 76, 146, 176, 186, 166, 46, 26, 116, 36, 16, 96, 126, 86, 6, 56, 136]|

(0.9375, 0.96875)
[39, 9, 199, 29, 79, 99, 69, 49, 139, 59, 89, 109, 159, 179, 129, 189, 149, 19, 169, 119]|
[98, 158, 48, 78, 168, 8, 188, 118, 128, 18, 38, 198, 138, 88, 28, 68, 108, 148, 178, 58]|
[157, 147, 47, 57, 117, 137, 17, 67, 7, 77, 107, 167, 197, 87, 37, 127, 177, 97, 27, 187]|
[166, 136, 56, 26, 116, 76, 156, 6, 36, 16, 146, 196, 106, 86, 46, 96, 66, 126, 176, 186]|

(0.96875, 1.0)
[39, 89, 59, 199, 179, 69, 49, 119, 79, 189, 109, 29, 129, 9, 19, 169, 149, 99, 139, 159]|
[168, 118, 188, 158, 148, 108, 48, 128, 78, 198, 138, 38, 68, 58, 178, 8, 88, 98, 18, 28]|
[86, 126, 106, 66, 26, 6, 116, 16, 56, 46, 156, 136, 76, 36, 176, 166, 146, 186, 96, 196]|
[7, 37, 67, 27, 97, 157, 47, 177, 87, 57, 197, 167, 147, 187, 137, 17, 127, 107, 77, 117]|

(0.8125, 0.84375)
[98, 168, 18, 88, 78, 108, 148, 118, 68, 178, 28, 158, 58, 48, 38, 128, 138, 188, 198, 8]|
[179, 39, 49, 79, 19, 189, 199, 69, 169, 159, 99, 119, 29, 89, 129, 109, 59, 149, 139, 9]|

(0.84375, 0.875)
[158, 178, 148, 38, 198, 188, 88, 118, 28, 58, 18, 168, 78, 138, 68, 48, 128, 8, 108, 98]|
[189, 179, 79, 9, 49, 119, 199, 159, 149, 139, 109, 89, 39, 99, 29, 169, 59, 69, 129, 19]|

(0.625, 0.65625)
[77, 167, 127, 107, 157, 57, 67, 37, 97, 187, 47, 137, 87, 117, 197, 17, 27, 177, 7, 147]|
[16, 146, 136, 126, 116, 36, 176, 196, 186, 96, 66, 166, 56, 156, 26, 6, 86, 46, 106, 76]|

(0.65625, 0.6875)
[157, 7, 27, 87, 37, 127, 187, 177, 47, 137, 107, 147, 197, 117, 77, 57, 97, 67, 17, 167]|
[116, 146, 126, 16, 6, 36, 46, 96, 66, 176, 76, 156, 186, 56, 196, 106, 86, 136, 166, 26]|


OUR METHOD
===NOT-FLAGGED===
(0.0, 0.0625)
[161, 21]|
[91, 51, 171, 31, 11, 181, 141]|
[191, 121, 41]|

(0.0, 0.125)
[152, 42, 82, 192]|
[150, 90, 110, 30, 20]|
[102, 12, 112]|

(0.0625, 0.125)
[191, 121, 41]|
[21, 161]|
[181, 31, 141, 171, 91, 51, 11]|

(0.0, 0.25)
[14, 109, 33, 167, 62, 125, 32, 44, 60, 173, 69, 71, 80, 37, 158, 16, 163, 127, 114, 104, 176, 61, 92, 81, 67, 1, 187, 143, 99, 160, 106, 155, 186, 45, 17, 64, 27, 26, 66, 43, 182, 133, 103, 193, 188, 156, 108, 95, 29, 168, 0, 120, 115, 97, 59, 28, 63, 53, 116, 140, 151, 10, 142, 159, 70, 157, 172, 58, 197, 189, 131, 9, 84, 98, 79, 130, 195, 52, 22, 48, 124, 144, 118, 180, 169, 36, 100, 175, 111, 139, 170, 74, 88, 40, 86, 105, 77, 56, 196, 76, 149, 49, 89, 126, 184, 165, 55, 136, 119, 107, 85, 146, 34, 132, 3, 4, 183, 15, 57, 93, 174, 83, 25, 135, 75, 35, 145, 96, 87, 137, 13, 68, 122, 190, 50, 153, 117, 65, 148, 162, 179, 147, 5, 198, 72, 101, 47, 134, 8, 18, 128, 123, 129, 138, 113, 73, 94, 54, 19, 199, 177, 166, 185, 194, 46, 154, 24, 78, 7, 23, 2, 164, 38, 39, 178, 6]|

(0.125, 0.25)
[141, 191, 11, 31, 161, 41, 181, 91, 121, 21, 171, 51]|
[150, 110, 30, 90, 20]|

(0.125, 0.1875)
[192]|
[12, 152, 112, 102, 82, 42]|

(0.1875, 0.25)
[112, 82, 42]|
[102, 192, 12, 152]|

(0.0, 0.5)

(0.25, 0.5)
[11, 129, 30, 98, 90, 25, 32, 21, 76, 171, 49, 83, 163, 136, 39, 191, 18, 22, 96, 61, 10, 77, 140, 42, 3, 121, 81, 162, 29, 109, 86, 152, 99, 20, 80, 45, 89, 28, 37, 57, 47, 197, 176, 155, 36, 95, 181, 167, 6, 75, 46, 8, 88, 91, 2, 17, 118, 194, 12, 82, 40, 137, 97, 78, 106, 116, 146, 27, 87, 131, 16, 151, 150, 1, 70, 59, 55, 93, 119, 7, 117, 63, 130, 66, 147, 56, 166, 38, 31, 67, 9, 186, 126, 178, 159, 169, 195, 168, 60, 187, 179, 157, 111, 100, 170, 71, 139, 198, 26, 102, 180, 115, 19, 23, 149, 145, 51, 138, 112, 52, 128, 50, 160, 189, 122, 190, 196, 62, 15, 141, 110, 142, 44, 172, 161, 41, 108, 48, 120, 92, 107, 33, 188, 35, 101, 0, 58, 69, 177, 192, 148, 79, 68, 185, 158, 156, 127, 132, 72, 199, 182]|

(0.25, 0.375)
[73, 143]|
[24, 124, 104, 54, 74]|
[135, 65, 125, 85, 175, 165, 5, 105]|
[113, 13, 173, 123, 193, 183, 153, 43, 53]|
[94, 144, 184, 154, 34, 174, 114, 64, 84, 14, 164, 134, 4]|
[103, 133]|

(0.375, 0.5)
[143, 73]|
[153, 123, 13, 183, 53, 43, 113, 193]|
[84, 144, 164, 124, 114, 64, 54, 134, 154, 104, 184, 4]|
[125, 85, 74, 135, 105, 175, 165, 5, 65, 24]|
[14, 34, 94, 174]|
[103, 173, 133]|

(0.0, 1.0)

(0.5, 1.0)

(0.5, 0.75)
[197, 48, 186, 117, 57]|
[198, 42, 129, 51, 28, 182, 116, 167, 103, 130, 54, 149, 101, 72, 188, 41, 63, 178, 81, 36, 20, 7, 181, 67, 144, 12, 21, 8, 61, 44, 193, 113, 47, 195, 78, 97, 37, 187, 159, 91, 138, 17, 192, 18, 161, 98, 171, 87, 157, 39, 11, 71, 168, 143, 75, 112, 141, 24, 62, 43, 190, 102, 160, 3, 172, 73, 4, 0, 142, 89, 180, 70, 23, 33, 153, 106, 14, 184, 147, 135, 79, 30, 131, 65, 31, 111, 152, 83, 92, 140, 189, 133, 40, 120, 163, 174, 134, 64, 80, 139, 9, 56, 154, 124, 132, 199, 110, 125, 128, 90, 38, 60, 25, 119, 52, 84, 191, 74, 150, 85, 27, 194, 173, 123, 155, 127, 164, 158, 99, 100, 68, 93, 96, 170, 151, 1, 10, 66, 94, 183, 69, 121, 107, 58, 114, 29, 109, 82, 34, 50, 122, 162, 19, 177, 32, 169, 49, 179, 59, 22, 2, 118, 88, 104, 108, 13, 148, 53]|

(0.75, 1.0)
[177, 5, 18, 116, 37, 192, 148, 155, 86, 150, 31, 69, 185, 56, 144, 65, 19, 15, 32, 12, 124, 100, 196, 43, 4, 136, 78, 130, 30, 154, 40, 3, 92, 175, 81, 54, 17, 173, 195, 26, 110, 67, 108, 139, 167, 112, 83, 194, 143, 121, 53, 127, 1, 7, 184, 123, 134, 93, 172, 126, 38, 106, 44, 27, 166, 135, 133, 63, 160, 57, 103, 11, 95, 122, 55, 190, 157, 24, 164, 132, 153, 117, 171, 142, 147, 87, 6, 29, 191, 163, 49, 188, 182, 20, 114, 23, 60, 42, 82, 151, 22, 176, 165, 85, 64, 189, 174, 34, 113, 156, 141, 146, 115, 91, 75, 198, 25, 104, 16, 80, 89, 168, 197, 120, 10, 45, 50, 119, 107, 2, 180, 90, 9, 74, 111, 88, 72, 21, 33, 36, 187, 97, 0, 138, 51, 61, 140, 152, 183, 137, 193, 77, 13, 76, 94, 125, 102, 47, 46, 181, 73, 52, 162, 170, 101, 105, 161, 41, 62, 70, 66, 158, 14, 131, 96, 35, 98, 71, 68, 84, 8, 145, 28]|

(0.75, 0.875)
[99, 199]|
[186]|
[149, 159, 79, 59, 178, 129, 169, 39, 179, 109]|

(0.875, 1.0)
[99, 199]|
[169, 149, 59, 79, 109, 39, 159]|
[58, 178, 118, 48, 128]|
[186]|
[129, 179]|

(0.5, 0.625)
[176]|
[137]|
[26, 16]|
[196, 86, 166, 6, 136, 46, 146, 126, 76, 156]|
[77]|
[5, 175, 95, 35, 55, 105, 45, 145, 165, 115, 15, 185]|

(0.625, 0.75)
[176]|
[137]|
[26, 16]|
[76, 86, 156, 196, 146, 126, 46, 6, 166, 136]|
[165, 95, 55, 115, 185, 175, 35, 5, 145, 105, 45, 15]|
[77]|

(0.75, 0.8125)
[48, 128, 118, 58]|

(0.8125, 0.875)
[48, 58]|
[128, 118]|

===FLAGGED===
(0.0, 0.125)

(0.0, 0.25)

(0.125, 0.25)

(0.0, 0.5)

(0.25, 0.5)

(0.0, 1.0)

(0.5, 1.0)

(0.75, 1.0)

(0.5, 0.75)

(0.75, 0.875)

